<svg width="32" height="32" viewBox="0 0 32 32" fill="none" xmlns="http://www.w3.org/2000/svg">
<path d="M5.39355 25.1924L25.1925 5.39339L26.6068 6.80761L6.80777 26.6066L5.39355 25.1924Z" fill="black"/>
<path d="M25.1924 26.6067L5.39339 6.8077L6.80761 5.39349L26.6066 25.1925L25.1924 26.6067Z" fill="black"/>
</svg>
