<svg width="6" height="8" viewBox="0 0 6 8" fill="none" xmlns="http://www.w3.org/2000/svg">
<path fill-rule="evenodd" clip-rule="evenodd" d="M1.85344 7.70703L0.439226 6.29282L2.73212 3.99992L0.439226 1.70703L1.85344 0.292817L5.56055 3.99992L1.85344 7.70703Z" fill="black"/>
</svg>
